Hw-05 J Stewart
…
Examine order of levels before and after change.

(before <- levels(oceania_dropped2$continent))

## [1] "Africa"   "Americas" "Asia"     "Europe"

(after <- levels(reorder$continent))

## [1] "Africa"   "Asia"     "Americas" "Europe"

oceania_dropped2 %>% 
  arrange(continent)

## # A tibble: 1,680 x 6
##    country continent  year lifeExp      pop gdpPercap
##    <fct>   <fct>     <int>   <dbl>    <int>     <dbl>
##  1 Algeria Africa     1952    43.1  9279525     2449.
##  2 Algeria Africa     1957    45.7 10270856     3014.
##  3 Algeria Africa     1962    48.3 11000948     2551.
##  4 Algeria Africa     1967    51.4 12760499     3247.
##  5 Algeria Africa     1972    54.5 14760787     4183.
##  6 Algeria Africa     1977    58.0 17152804     4910.
##  7 Algeria Africa     1982    61.4 20033753     5745.
##  8 Algeria Africa     1987    65.8 23254956     5681.
##  9 Algeria Africa     1992    67.7 26298373     5023.
## 10 Algeria Africa     1997    69.2 29072015     4797.
## #  with 1,670 more rows
…
Exercise 3: File input/output (I/O) (20%)

Task: Experiment with write_csv()/read_csv()

library(readxl)

year_1977 <- gapminder %>%
  filter(year=='1977')

year_1977

## # A tibble: 142 x 6
##    country     continent  year lifeExp      pop gdpPercap
##    <fct>       <fct>     <int>   <dbl>    <int>     <dbl>
##  1 Afghanistan Asia       1977    38.4 14880372      786.
##  2 Albania     Europe     1977    68.9  2509048     3533.
##  3 Algeria     Africa     1977    58.0 17152804     4910.
##  4 Angola      Africa     1977    39.5  6162675     3009.
##  5 Argentina   Americas   1977    68.5 26983828    10079.
##  6 Australia   Oceania    1977    73.5 14074100    18334.
##  7 Austria     Europe     1977    72.2  7568430    19749.
##  8 Bahrain     Asia       1977    65.6   297410    19340.
##  9 Bangladesh  Asia       1977    46.9 80428306      660.
## 10 Belgium     Europe     1977    72.8  9821800    19118.
## #  with 132 more rows
…
# Read the dataset back in:
(reload_1977 <- read_csv(here::here("1977_gapminder.csv")))

## Parsed with column specification:
## cols(
##   country = col_character(),
##   continent = col_character(),
##   year = col_double(),
##   lifeExp = col_double(),
##   pop = col_double(),
##   gdpPercap = col_double()
## )

## # A tibble: 142 x 6
##    country     continent  year lifeExp      pop gdpPercap
##    <chr>       <chr>     <dbl>   <dbl>    <dbl>     <dbl>
##  1 Afghanistan Asia       1977    38.4 14880372      786.
##  2 Albania     Europe     1977    68.9  2509048     3533.
##  3 Algeria     Africa     1977    58.0 17152804     4910.
##  4 Angola      Africa     1977    39.5  6162675     3009.
##  5 Argentina   Americas   1977    68.5 26983828    10079.
##  6 Australia   Oceania    1977    73.5 14074100    18334.
##  7 Austria     Europe     1977    72.2  7568430    19749.
##  8 Bahrain     Asia       1977    65.6   297410    19340.
##  9 Bangladesh  Asia       1977    46.9 80428306      660.
## 10 Belgium     Europe     1977    72.8  9821800    19118.
## #  with 132 more rows
…
